<?xml version="1.0" encoding="utf-8"?>
<!-- Generator: Adobe Illustrator 22.0.1, SVG Export Plug-In . SVG Version: 6.00 Build 0)  -->
<svg version="1.1" id="Layer_1" xmlns="http://www.w3.org/2000/svg" xmlns:xlink="http://www.w3.org/1999/xlink" x="0px" y="0px"
	 viewBox="0 0 193.5 36.5" style="enable-background:new 0 0 193.5 36.5;" xml:space="preserve">
<style type="text/css">
	.st0{font-family:'BrandonGrotesque-Light';}
	.st1{font-size:50.23px;}
</style>
<title>logo</title>
<g id="Layer_2_1_">
	<g id="Layer_1-2">
		<text transform="matrix(1 0 0 1 51 35.9333)" class="st0 st1">L</text>
		<text transform="matrix(1 0 0 1 75.01 35.9333)" class="st0 st1">OGO</text>
		<rect y="0.8" width="35" height="35"/>
	</g>
</g>
</svg>
